{
  "type": "Fortifier",
  "id": "e2e6ef4d-abd8-41c9-9afb-dbb1986e9ff3",
  "brand": "Galia",
  "product": "Gumilk",
  "weight_g": 100,
  "protide_g": 1.9,
  "carbohydrate_g": 61.7,
  "lipides_g": 0.3,
  "total_calories_kcal": 316,
  "sodium_meq": 130.5,
  "potassium_meq": 2.688,
  "calcium_mg": 35,
  "phosphorus_mg": 14,
  "osmolarity_mosm_l_perc_add": 28.7
}
