{
  "type": "Milk",
  "id": "fad5ec76-0283-4393-82ba-272601a87d17",
  "brand": "Galia",
  "product": "Premature",
  "volume_ml": 100,
  "protide_g": 1.2,
  "carbohydrate_g": 7.5,
  "lipides_g": 3.6,
  "total_calories_kcal": 67,
  "sodium_meq": 3.045,
  "potassium_meq": 2.048,
  "calcium_mg": 100,
  "phosphorus_mg": 56
}
