{
  "type": "Milk",
  "id": "f88eaf1d-93e2-40ce-9a34-86494a393b02",
  "brand": "Nutramigen",
  "product": "LGG",
  "volume_ml": 100,
  "protide_g": 1.91,
  "carbohydrate_g": 7.5,
  "lipides_g": 3.4,
  "total_calories_kcal": 68,
  "sodium_meq": 1.392,
  "potassium_meq": 2.124,
  "calcium_mg": 77,
  "phosphorus_mg": 53
}
