{
  "type": "Milk",
  "id": "8b8b5dea-b338-4882-a2ca-b718892333e3",
  "brand": "Modilac",
  "product": "Lait AR",
  "volume_ml": 100,
  "protide_g": 1.5,
  "carbohydrate_g": 7.4,
  "lipides_g": 3.5,
  "total_calories_kcal": 68,
  "sodium_meq": 0.87,
  "potassium_meq": 1.868,
  "calcium_mg": 73,
  "phosphorus_mg": 41
}
