{
  "type": "Solute",
  "id": "ffc68c1d-592d-43c3-8311-8e76c272ff14",
  "brand": "Numetah",
  "product": "G16E",
  "volume_ml": 100,
  "protide_g": 3.4,
  "nitrogen_g": 0.52,
  "carbohydrate_g": 20.6,
  "lipides_g": 0,
  "total_calories_kcal": 96,
  "sodium_meq": 3.1,
  "potassium_meq": 3,
  "calcium_mg": 32.8656,
  "magnesium_mmol": 0.41,
  "chloride_mmol": 3.7,
  "phosphorus_mg": 26.3279
}
