[gd_resource type="StyleBoxFlat" format=2]

[resource]

content_margin_left = 7.0
content_margin_right = 7.0
content_margin_top = 7.0
content_margin_bottom = 7.0
bg_color = Color( 1, 1, 1, 1 )
draw_center = true
border_width_left = 2
border_width_top = 2
border_width_right = 2
border_width_bottom = 2
border_color = Color( 0.203922, 0.505882, 0.686275, 1 )
border_blend = true
corner_radius_top_left = 3
corner_radius_top_right = 3
corner_radius_bottom_right = 3
corner_radius_bottom_left = 3
corner_detail = 10
expand_margin_left = 0.0
expand_margin_right = 0.0
expand_margin_top = 0.0
expand_margin_bottom = 0.0
shadow_color = Color( 0, 0, 0, 0.158431 )
shadow_size = 300
anti_aliasing = true
anti_aliasing_size = 1
_sections_unfolded = [ "Anti Aliasing", "Content Margin", "Expand Margin", "Resource", "Shadow" ]

